Introduction to RFM • rfm
…
 Data

To calculate the RFM score for each customer we need transaction data which should include the following:

a unique customer id

date of transaction/order

transaction/order amount

rfm includes a sample data set rfm_data which includes the above details:

rfm_data

## # A tibble: 4,906 x 3
##            customer_id order_date revenue
##                  <chr>     <date>   <dbl>
##  1 Mr. Brion Stark Sr. 2004-12-20      32
##  2      Ethyl Botsford 2005-05-02      36
##  3      Hosteen Jacobi 2004-03-06     116
##  4       Mr. Edw Frami 2006-03-15      99
##  5         Josef Lemke 2006-08-14      76
##  6    Julisa Halvorson 2005-05-28      56
##  7    Judyth Lueilwitz 2005-03-09     108
##  8   Mr. Mekhi Goyette 2005-09-23     183
##  9   Hansford Moen PhD 2005-09-07      30
## 10       Fount Flatley 2006-04-12      13
## # ... with 4,896 more rows
…
