RFM - Customer Level Data • rfm
…
To calculate the RFM score for each customer we need transaction data which should include the following:

a unique customer id

number of transaction/order

total revenue from the customer

number of days since the last visit

rfm includes a sample data set rfm_data_orders which includes the above details:

rfm_data_customer

## # A tibble: 39,999 x 5
##    customer_id total_amount most_recent_visit number_of_purchases
##          <dbl>        <dbl> <date>                          <dbl>
##  1        1.00         1313 2006-05-17                      10.0 
##  2        2.00         1230 2005-09-21                      11.0 
##  3        3.00         1194 2006-08-11                      13.0 
##  4        4.00          794 2006-05-24                       9.00
##  5        5.00          278 2005-03-13                       3.00
##  6        6.00          922 2006-07-28                       9.00
##  7        7.00          961 2006-06-20                      11.0 
##  8        8.00          615 2005-06-08                       6.00
##  9        9.00         1097 2006-05-02                       9.00
## 10       10.0          1164 2006-05-07                      12.0 
##    purchase_interval
##                <dbl>
##  1               229
##  2               467
##  3               143
##  4               222
##  5               659
##  6               157
##  7               195
##  8               572
##  9               244
## 10               239
## # ... with 39,989 more rows
…
