RFM Table — rfm_table â€¢ rfm
…
    Value

    rfm_table returns a tibble with the following columns:

    Examples

analysis_date <- lubridate::as_datetime('2014-04-01 05:30:00', tz = 'UTC')
rfm_table(rfm_data, customer_id, order_date, revenue, analysis_date)
#> # A tibble: 13,787 x 9
#>            customer_id    date_most_recent recency_days transaction_count
#>                  <chr>              <dttm>        <dbl>             <int>
#>  1     Aaliyah Carroll 2014-03-28 00:00:00      4.00000                 1
#>  2     Aaliyah Padberg 2014-03-10 07:48:00     21.67500                 1
#>  3         Aarav Hyatt 2014-02-17 00:00:00     43.00000                 1
#>  4      Aarav Kassulke 2014-01-20 04:09:00     70.82708                 1
#>  5         Aarav Kutch 2014-01-18 00:40:00     72.97222                 1
#>  6       Aaron Gutmann 2014-02-06 06:59:00     53.70903                 1
#>  7       Aaron Stracke 2014-02-13 00:00:00     47.00000                 3
#>  8    Abagail Weissnat 2014-02-14 00:00:00     46.00000                 2
#>  9 Abagail Windler PhD 2014-02-14 00:00:00     46.00000                 1
#> 10       Abb Armstrong 2014-01-20 00:00:00     71.00000                 2
#> # ... with 13,777 more rows, and 5 more variables: amount <int>,
#> #   recency_score <int>, frequency_score <int>, monetary_score <int>,
#> #   rfm_score <dbl>
…
