RFM table (transaction data) — rfm_table_order â€¢ rfm
…
customer_idUnique id of the customer.

date_most_recentDate of the most recent transaction.

recency_daysNumber of days since the most recent transaction.

transaction_countTotal number of transactions of the customer.

revenueRevenue from the customer.

    Examples

analysis_date <- lubridate::as_date('2006-12-31', tz = 'UTC')
rfm_table_order(rfm_data_orders, customer_id, order_date, revenue, analysis_date)
#> # A tibble: 995 x 9
#>    customer_id        date_most_recent recency_days transaction_count amount
#>    <chr>              <date>                  <dbl>             <dbl>  <dbl>
#>  1 Abbey O'Reilly DVM 2006-06-09              205                6.00    472
#>  2 Add Senger         2006-08-13              140                3.00    340
#>  3 Aden Lesch Sr.     2006-06-20              194                4.00    405
#>  4 Admiral Senger     2006-08-21              132                5.00    448
#>  5 Agness O'Keefe     2006-10-02               90.0              9.00    843
#>  6 Aileen Barton      2006-10-08               84.0              9.00    763
#>  7 Ailene Hermann     2006-03-25              281                8.00    699
#>  8 Aiyanna Bruen PhD  2006-04-29              246                4.00    157
#>  9 Ala Schmidt DDS    2006-01-16              349                3.00    363
#> 10 Alannah Borer      2005-04-21              619                4.00    196
#> # ... with 985 more rows, and 4 more variables: recency_score <int>,
#> #   frequency_score <int>, monetary_score <int>, rfm_score <dbl>
…
